7.16552734375
90.07568359375
6.97021484375
88.73291015625
6.8115234375
90.22216796875
5.62744140625
88.70849609375
8.21533203125
88.8671875
8.58154296875
89.83154296875
6.79931640625
90.0390625
7.06787109375
89.1845703125
7.09228515625
90.234375
7.43408203125
89.07470703125
7.48291015625
88.57421875
7.11669921875
88.8671875
7.58056640625
89.95361328125
6.53076171875
88.76953125
6.01806640625
89.12353515625
5.46875
88.56201171875
5.5908203125
90.380859375
5.2978515625
89.70947265625
5.95703125
89.41650390625
6.7138671875
90.90576171875
6.82373046875
88.78173828125
7.080078125
89.44091796875
6.982421875
88.97705078125
6.884765625
89.3798828125
6.40869140625
90.91796875
6.3720703125
89.75830078125
5.96923828125
89.208984375
6.982421875
90.14892578125
7.421875
89.990234375
6.26220703125
90.087890625
6.2744140625
89.0380859375
6.9091796875
89.697265625
6.103515625
90.36865234375
6.77490234375
88.83056640625
6.201171875
88.8916015625
6.3232421875
89.34326171875
6.2744140625
88.9404296875
6.72607421875
88.525390625
6.06689453125
89.34326171875
7.16552734375
89.90478515625
7.50732421875
90.4052734375
6.18896484375
89.5751953125
6.06689453125
89.51416015625
6.298828125
88.5986328125
5.67626953125
89.599609375
6.38427734375
89.111328125
6.494140625
89.14794921875
6.689453125
88.07373046875
6.982421875
89.12353515625
7.14111328125
89.83154296875
6.9091796875
90.51513671875
6.54296875
89.22119140625
5.84716796875
88.58642578125
6.87255859375
88.61083984375
6.787109375
88.623046875
7.11669921875
88.232421875
7.50732421875
89.48974609375
6.6650390625
89.46533203125
7.31201171875
88.85498046875
6.82373046875
89.892578125
7.0556640625
89.22119140625
7.26318359375
90.0390625
6.640625
89.83154296875
6.99462890625
89.24560546875
6.9091796875
88.5986328125
5.76171875
89.8681640625
5.95703125
89.6728515625
6.4208984375
88.95263671875
6.72607421875
90.02685546875
6.62841796875
89.07470703125
6.60400390625
89.3798828125
7.33642578125
90.44189453125
6.62841796875
90.12451171875
6.31103515625
90.3076171875
6.4453125
88.46435546875
6.298828125
90.2587890625
6.60400390625
89.80712890625
6.75048828125
90.72265625
6.0302734375
89.46533203125
6.60400390625
89.0625
7.080078125
89.4287109375
6.72607421875
89.306640625
7.11669921875
88.7451171875
6.26220703125
89.75830078125
6.60400390625
90.17333984375
6.6162109375
90.4052734375
6.640625
90.4296875
6.9580078125
90.12451171875
6.79931640625
89.2578125
6.0791015625
90.4296875
6.2744140625
88.8916015625
